{
  "welcomeFile": "/webapp/index.html",
  "routes": [
    {
      "path": "/resources",
      "target": {
        "type": "service",
        "name": "sapui5",
        "entryPath": "/resources"
      },
      "description": "SAPUI5 Resources"
    },
    {
      "path": "/test-resources",
      "target": {
        "type": "service",
        "name": "sapui5",
        "entryPath": "/test-resources"
      },
      "description": "SAPUI5 Test Resources"
    },{
		"path": "/ErpApi_CLONING",
		"target": {
			"type": "destination",
			"name": "ErpApi_CLONING"
		},
		"description": ""
	}, {
		"path": "/Flow7Api_CLONING",
		"target": {
			"type": "destination",
			"name": "Flow7Api_CLONING"
		},
		"description": ""
	}
  ],
  "sendWelcomeFileRedirect": true
}